…
#### List column

Df-i veerg, mille andmetüüp on list. Näiteks mudeliobjektid, funktsioonid ja teised df-d võivad minna list columnisse!
List columnid on ise listid, mitte andmevektorid. 

      List veerud võimaldavad panna samasse tabelisse erinevaid asju - 
      andmeid, mudeleid, mudeli koefitsiente jms. 

nest() teeb uue df-i, kus on 1. veerg grupeeriva muutuja tasemetega, millele järgneb list column, mille iga element on tibble. Iga tibble sisaldab relevantset infot  grupeeriva muutuja vastava taseme kohta. 

```r
library(gapminder)
(nested_gapminder <- gapminder %>% group_by(country) %>% nest())
#> # A tibble: 142 x 2
#> # Groups:   country [142]
#>   country               data
#>   <fct>       <list<df[,5]>>
#> 1 Afghanistan       [12 x 5]
#> 2 Albania           [12 x 5]
#> 3 Algeria           [12 x 5]
#> 4 Angola            [12 x 5]
#> 5 Argentina         [12 x 5]
#> 6 Australia         [12 x 5]
#> # ... with 136 more rows
```

unnest() teeb algse df-i tagasi.

iga nested_gapminder$data element on ise df:

```r
nested_gapminder %>% 
  pluck("data") %>% 
  pluck(1) # %>% lm(lifeExp ~ year, data = .)
#> # A tibble: 12 x 5
#>   continent  year lifeExp      pop gdpPercap
#>   <fct>     <int>   <dbl>    <int>     <dbl>
#> 1 Asia       1952    28.8  8425333      779.
#> 2 Asia       1957    30.3  9240934      821.
#> 3 Asia       1962    32.0 10267083      853.
#> 4 Asia       1967    34.0 11537966      836.
#> 5 Asia       1972    36.1 13079460      740.
#> 6 Asia       1977    38.4 14880372      786.
#> # ... with 6 more rows
…
