…
## Baasgraafika

Kõigepealt laadime tabeli, mida me visuaalselt analüüsima hakkame:

```r
iris <- as_tibble(iris)
iris
#> # A tibble: 150 x 5
#>   Sepal.Length Sepal.Width Petal.Length Petal.Width
#>          <dbl>       <dbl>        <dbl>       <dbl>
#> 1          5.1         3.5          1.4         0.2
#> 2          4.9         3            1.4         0.2
#> 3          4.7         3.2          1.3         0.2
#> 4          4.6         3.1          1.5         0.2
#> 5          5           3.6          1.4         0.2
#> 6          5.4         3.9          1.7         0.4
#> # ... with 144 more rows, and 1 more variable:
#> #   Species <fct>
```
…
