…
Kõigepealt pikka formaati. key ja value argumendid on ainult uute veergude nimetamiseks, oluline on 3:ncol(dat) argument, mis ütleb, et "kogu kokku veerud alates 3. veerust". Alternatiivne viis seda öelda: c(-subject, -sex).

```r
dat_lng <- gather(dat, key = experiment, value = value, 3:ncol(dat))
# df_l3<-df %>% gather(experiment, value, 3:ncol(df)) works as well.
#df_l4<-df %>% gather(experiment, value, c(-subject, -sex)) works as well
dat_lng
#> # A tibble: 9 x 4
#>   subject sex   experiment   value
#>   <chr>   <chr> <chr>        <dbl>
#> 1 Tim     M     control       23.0
#> 2 Ann     F     control       31.0
#> 3 Jill    F     control       30.0
#> 4 Tim     M     experiment_1  34.0
#> 5 Ann     F     experiment_1  38.0
#> 6 Jill    F     experiment_1  36.0
#> # ... with 3 more rows
```
…
Select columns from sex to value:

```r
iris
select(iris, Petal.Length:Species)
select(iris, -(Petal.Length:Species)) #selects everything, except those cols
```


To select 3 columns and rename *subject* to *SUBJ* and put liik as the 1st col:

```r
select(iris, liik = Species, Sepal.Length, Sepal.Width) %>% dplyr::as_data_frame()
#> # A tibble: 150 x 3
#>   liik   Sepal.Length Sepal.Width
#>   <fctr>        <dbl>       <dbl>
#> 1 setosa         5.10        3.50
#> 2 setosa         4.90        3.00
#> 3 setosa         4.70        3.20
#> 4 setosa         4.60        3.10
#> 5 setosa         5.00        3.60
#> 6 setosa         5.40        3.90
#> # ... with 144 more rows
```
…
`starts_with("abc")`: matches names that begin with "abc."

`ends_with("xyz")`: matches names that end with "xyz."

`contains("ijk")`: matches names that contain "ijk."

`matches("(.)\\1")`: selects variables that match a regular expression. This one matches any variables that contain repeated characters. 

`num_range("x", 1:3)` matches x1, x2 and x3.


```r
iris <- as_tibble(iris)
select(iris, starts_with("Petal"))
#> # A tibble: 150 x 2
#>   Petal.Length Petal.Width
#>          <dbl>       <dbl>
#> 1         1.40       0.200
#> 2         1.40       0.200
#> 3         1.30       0.200
#> 4         1.50       0.200
#> 5         1.40       0.200
#> 6         1.70       0.400
#> # ... with 144 more rows
select(iris, ends_with("Width"))
#> # A tibble: 150 x 2
#>   Sepal.Width Petal.Width
#>         <dbl>       <dbl>
#> 1        3.50       0.200
#> 2        3.00       0.200
#> 3        3.20       0.200
#> 4        3.10       0.200
#> 5        3.60       0.200
#> 6        3.90       0.400
#> # ... with 144 more rows

# Move Species variable to the front
select(iris, Species, everything())
#> # A tibble: 150 x 5
#>   Species Sepal.Length Sepal.Width Petal.Length Petal~
#>   <fctr>         <dbl>       <dbl>        <dbl>  <dbl>
#> 1 setosa          5.10        3.50         1.40  0.200
#> 2 setosa          4.90        3.00         1.40  0.200
#> 3 setosa          4.70        3.20         1.30  0.200
#> 4 setosa          4.60        3.10         1.50  0.200
#> 5 setosa          5.00        3.60         1.40  0.200
#> 6 setosa          5.40        3.90         1.70  0.400
#> # ... with 144 more rows

dat <- as.data.frame(matrix(runif(100), nrow = 10))
dat <- tbl_df(dat[c(3, 4, 7, 1, 9, 8, 5, 2, 6, 10)])
select(dat, V9:V6)
#> # A tibble: 10 x 5
#>        V9    V8    V5    V2     V6
#>     <dbl> <dbl> <dbl> <dbl>  <dbl>
#> 1 0.598   0.863 0.539 0.873 0.824 
#> 2 0.206   0.258 0.709 0.120 0.291 
#> 3 0.539   0.699 0.930 0.566 0.0464
#> 4 0.509   0.846 0.366 0.866 0.279 
#> 5 0.680   0.299 0.659 0.877 0.499 
#> 6 0.00983 0.522 0.616 0.920 0.958 
#> # ... with 4 more rows
select(dat, num_range("V", 9:6))
#> # A tibble: 10 x 4
#>        V9    V8     V7     V6
#>     <dbl> <dbl>  <dbl>  <dbl>
#> 1 0.598   0.863 0.245  0.824 
#> 2 0.206   0.258 0.0361 0.291 
#> 3 0.539   0.699 0.0132 0.0464
#> 4 0.509   0.846 0.218  0.279 
#> 5 0.680   0.299 0.647  0.499 
#> 6 0.00983 0.522 0.543  0.958 
#> # ... with 4 more rows

# Drop variables with -
select(iris, -starts_with("Petal"))
#> # A tibble: 150 x 3
#>   Sepal.Length Sepal.Width Species
#>          <dbl>       <dbl> <fctr> 
#> 1         5.10        3.50 setosa 
#> 2         4.90        3.00 setosa 
#> 3         4.70        3.20 setosa 
#> 4         4.60        3.10 setosa 
#> 5         5.00        3.60 setosa 
#> 6         5.40        3.90 setosa 
#> # ... with 144 more rows

# Renaming -----------------------------------------
# select() keeps only the variables you specify
# rename() keeps all variables
rename(iris, petal_length = Petal.Length)
#> # A tibble: 150 x 5
#>   Sepal.Length Sepal.Width petal_length Petal.W~ Spec~
#>          <dbl>       <dbl>        <dbl>    <dbl> <fct>
#> 1         5.10        3.50         1.40    0.200 seto~
#> 2         4.90        3.00         1.40    0.200 seto~
#> 3         4.70        3.20         1.30    0.200 seto~
#> 4         4.60        3.10         1.50    0.200 seto~
#> 5         5.00        3.60         1.40    0.200 seto~
#> 6         5.40        3.90         1.70    0.400 seto~
#> # ... with 144 more rows
```
…
Keep rows in Iris that have Species level "setosa" **or** Sepal.Length value <4.5.

```r
filter(iris, Species=="setosa" | Sepal.Length < 4.5)
#> # A tibble: 50 x 5
#>   Sepal.Length Sepal.Width Petal.Length Petal.W~ Spec~
#>          <dbl>       <dbl>        <dbl>    <dbl> <fct>
#> 1         5.10        3.50         1.40    0.200 seto~
#> 2         4.90        3.00         1.40    0.200 seto~
#> 3         4.70        3.20         1.30    0.200 seto~
#> 4         4.60        3.10         1.50    0.200 seto~
#> 5         5.00        3.60         1.40    0.200 seto~
#> 6         5.40        3.90         1.70    0.400 seto~
#> # ... with 44 more rows
```


Keep rows in Iris that have Species level "not setosa" **or** Sepal.Length value <4.5.

```r
filter(iris, Species !="setosa" | Sepal.Length < 4.5)
#> # A tibble: 104 x 5
#>   Sepal.Length Sepal.Width Petal.Length Petal.~ Speci~
#>          <dbl>       <dbl>        <dbl>   <dbl> <fctr>
#> 1         4.40        2.90         1.40   0.200 setosa
#> 2         4.30        3.00         1.10   0.100 setosa
#> 3         4.40        3.00         1.30   0.200 setosa
#> 4         4.40        3.20         1.30   0.200 setosa
#> 5         7.00        3.20         4.70   1.40  versi~
#> 6         6.40        3.20         4.50   1.50  versi~
#> # ... with 98 more rows
```
…
```r
filter(iris, Species =="setosa" | Species =="versicolor")
filter(iris, Species %in% c("setosa", "versicolor") )
```
Nagu näha, 2. variant on oluliselt lühem.

Filtering with regular expression: we keep the rows where *subject* starts with the
letter "T"

```r
library(stringr)
filter(iris, str_detect(Species, "^v")) 
#> # A tibble: 100 x 5
#>   Sepal.Length Sepal.Width Petal.Length Petal.~ Speci~
#>          <dbl>       <dbl>        <dbl>   <dbl> <fctr>
#> 1         7.00        3.20         4.70    1.40 versi~
#> 2         6.40        3.20         4.50    1.50 versi~
#> 3         6.90        3.10         4.90    1.50 versi~
#> 4         5.50        2.30         4.00    1.30 versi~
#> 5         6.50        2.80         4.60    1.50 versi~
#> 6         5.70        2.80         4.50    1.30 versi~
#> # ... with 94 more rows
```
…
`summarise()` argumendid on indentsed eelmise näitega aga tulemus ei ole. 
Siin me rakendame summarise verbi mitte kogu tabelile, vaid 3-le virtuaalsele tabelile, mis on saadud algsest tabelist. 

`group_by()`-le saab anda järjest mitu grupeerivat muutujat. 
Siis ta grupeerib kõigepealt neist esimese järgi, seejärel lõõb saadud grupid omakorda lahku teise argumendi järgi ja nii edasi kuni teie poolt antud argumendid otsa saavad.

Now we group previously generated dat_lng data frame first by *sex* and then inside each group again by *experiment*. 
This is getting complicated ...


```r
dat_lng
#> # A tibble: 9 x 4
#>   subject sex   experiment   value
#>   <chr>   <chr> <chr>        <dbl>
#> 1 Tim     M     control       23.0
#> 2 Ann     F     control       31.0
#> 3 Jill    F     control       30.0
#> 4 Tim     M     experiment_1  34.0
#> 5 Ann     F     experiment_1  38.0
#> 6 Jill    F     experiment_1  36.0
#> # ... with 3 more rows
…
*pro tip* if you want to summarise and then display the summary values as new column(s), which are added to the original non-shrunk df, use `mutate()` instead of `summarise()`.


```r
mutate(iris_grouped,
       MEAN = mean(Sepal.Length), 
       SD = sd(Sepal.Length))
#> # A tibble: 150 x 7
#> # Groups:   Species [3]
#>   Sepal.Length Sepal.~ Petal~ Petal~ Spec~  MEAN    SD
#>          <dbl>   <dbl>  <dbl>  <dbl> <fct> <dbl> <dbl>
#> 1         5.10    3.50   1.40  0.200 seto~  5.01 0.352
#> 2         4.90    3.00   1.40  0.200 seto~  5.01 0.352
#> 3         4.70    3.20   1.30  0.200 seto~  5.01 0.352
#> 4         4.60    3.10   1.50  0.200 seto~  5.01 0.352
#> 5         5.00    3.60   1.40  0.200 seto~  5.01 0.352
#> 6         5.40    3.90   1.70  0.400 seto~  5.01 0.352
#> # ... with 144 more rows
```
…
### `mutate()`

Mutate põhikasutus on siiski uute veergude tekitamine, mis võtavad endale inputi rea kaupa. Seega tabeli ridade arv ei muutu.

If in your tibble called 'df' you have a column called 'value', you can create a new log2 transformed value value column called log_value by `df %>% mutate(log_value = log2(value))`. Or you can create a new column where a constant is substracted from the value column: `df %>% mutate(centered_value = value - mean(value) ) `. Here the mean value is substracted from each individual value.

**Mutate adds new columns (and `transmute()` creates new columns while losing the previous columns)**

Here we  firstly create a new column, which contains log-transformed values from the *value* column, and name it *log_value*.  

```r
mutate(dat_lng, log_value = log(value))
#> # A tibble: 9 x 5
#>   subject sex   experiment   value log_value
#>   <chr>   <chr> <chr>        <dbl>     <dbl>
#> 1 Tim     M     control       23.0      3.14
#> 2 Ann     F     control       31.0      3.43
#> 3 Jill    F     control       30.0      3.40
#> 4 Tim     M     experiment_1  34.0      3.53
#> 5 Ann     F     experiment_1  38.0      3.64
#> 6 Jill    F     experiment_1  36.0      3.58
#> # ... with 3 more rows
```

The same with transmute: note the dropping of some of the original cols, keeping the original *subject* col and renaming the *sex* col.

```r
transmute(dat_lng, subject, gender = sex, log_value = log(value))
#> # A tibble: 9 x 3
#>   subject gender log_value
#>   <chr>   <chr>      <dbl>
#> 1 Tim     M           3.14
#> 2 Ann     F           3.43
#> 3 Jill    F           3.40
#> 4 Tim     M           3.53
#> 5 Ann     F           3.64
#> 6 Jill    F           3.58
#> # ... with 3 more rows
```
…
*`mutate_all()`, `mutate_if()` and `mutate_at()` and the three variants of `transmute()` (`transmute_all()`, `transmute_if()`, `transmute_at()`) make it easy to apply a transformation to a selection of variables. See help.*

Here we first group and then mutate. Note that now, instead of a single constant, we divide by as many different constant as there are discrete factor levels in the sex variable (two, in our case):

```r
group_by(dat_lng, sex) %>% 
  mutate(norm_value = value / mean(value), 
         n2_val = value / sd(value))
#> # A tibble: 9 x 6
#> # Groups:   sex [2]
#>   subject sex   experiment   value norm_value n2_val
#>   <chr>   <chr> <chr>        <dbl>      <dbl>  <dbl>
#> 1 Tim     M     control       23.0      0.711   2.67
#> 2 Ann     F     control       31.0      0.842   5.47
#> 3 Jill    F     control       30.0      0.814   5.29
#> 4 Tim     M     experiment_1  34.0      1.05    3.94
#> 5 Ann     F     experiment_1  38.0      1.03    6.70
#> 6 Jill    F     experiment_1  36.0      0.977   6.35
#> # ... with 3 more rows
```

Compare with a "straight" mutate to see the difference in values.


```r
mutate(dat_lng, 
       norm_value = value / mean(value), 
       n2_val = value / sd(value))
#> # A tibble: 9 x 6
#>   subject sex   experiment   value norm_value n2_val
#>   <chr>   <chr> <chr>        <dbl>      <dbl>  <dbl>
#> 1 Tim     M     control       23.0      0.651   3.48
#> 2 Ann     F     control       31.0      0.877   4.69
#> 3 Jill    F     control       30.0      0.849   4.54
#> 4 Tim     M     experiment_1  34.0      0.962   5.14
#> 5 Ann     F     experiment_1  38.0      1.08    5.75
#> 6 Jill    F     experiment_1  36.0      1.02    5.44
#> # ... with 3 more rows
```
…
### `fct_recode()` rekodeerib faktori tasemed 


```r
gss_cat %>% count(partyid)
#> # A tibble: 10 x 2
#>   partyid                n
#>   <fctr>             <int>
#> 1 No answer            154
#> 2 Don't know             1
#> 3 Other party          393
#> 4 Strong republican   2314
#> 5 Not str republican  3032
#> 6 Ind,near rep        1791
#> # ... with 4 more rows
gss_cat %>%
  mutate(partyid = fct_recode(partyid,
                              "Republican, strong"    = "Strong republican",
                              "Republican, weak"      = "Not str republican",
                              "Independent, near rep" = "Ind,near rep",
                              "Independent, near dem" = "Ind,near dem",
                              "Democrat, weak"        = "Not str democrat",
                              "Democrat, strong"      = "Strong democrat",
                              "Other"                 = "No answer",
                              "Other"                 = "Don't know",
                              "Other"                 = "Other party"
  )) %>%
  count(partyid)
#> # A tibble: 8 x 2
#>   partyid                   n
#>   <fctr>                <int>
#> 1 Other                   548
#> 2 Republican, strong     2314
#> 3 Republican, weak       3032
#> 4 Independent, near rep  1791
#> 5 Independent            4119
#> 6 Independent, near dem  2499
#> # ... with 2 more rows
```
…
