Reprodutseeritav andmeanalüüs kasutades R keelt
…
Laadime peatükis edaspidi vajalikud libraryd:

library(tidyverse)
library(ggthemes)
library(ggrepel)
library(ggjoy)
library(wesanderson)

7.1 Baasgraafika

Kõigepealt laadime tabeli, mida me visuaalselt analüüsima hakkame:

iris <- as_tibble(iris)
iris
#> # A tibble: 150 x 5
#>   Sepal.Length Sepal.Width Petal.Length Petal.W… Spec…
#>          <dbl>       <dbl>        <dbl>    <dbl> <fct>
#> 1         5.10        3.50         1.40    0.200 seto…
#> 2         4.90        3.00         1.40    0.200 seto…
#> 3         4.70        3.20         1.30    0.200 seto…
#> 4         4.60        3.10         1.50    0.200 seto…
#> 5         5.00        3.60         1.40    0.200 seto…
#> 6         5.40        3.90         1.70    0.400 seto…
#> # ... with 144 more rows
…
Nüüd üks näide teiste andmetega. Kaalutud lineaarne mudel on viis anda andmepunktidele, mida me tähtsamaks peame (või mis on täpsemalt mõõdetud) suurem kaal. Kõigepealt, siin on USA demograafilised andmed midwest “ggplot2” library-st erinevate kesk-lääne omavalitsuste kohta (437 omavalitsust).

Me valime midwest andmetest välja kolm muutujat: “percwhite”, “percbelowpoverty”, “poptotal”.

midwest_subset <- midwest %>% select(percwhite, percbelowpoverty, poptotal)
midwest_subset
#> # A tibble: 437 x 3
#>   percwhite percbelowpoverty poptotal
#>       <dbl>            <dbl>    <int>
#> 1      96.7            13.2     66090
#> 2      66.4            32.2     10626
#> 3      96.6            12.1     14991
#> 4      95.3             7.21    30806
#> 5      90.2            13.5      5836
#> 6      98.5            10.4     35688
#> # ... with 431 more rows
…
