12 Kuraditosin graafikut, mida sa peaksid enne surma joonistama | Reprodutseeritav andmeanalüüs kasutades R keelt
…
CI-d saab arvutada ka käsitsi. Kui valimi suurus on piisav ja normaaljaotus pole meie andmetest liiga kaugel, siis saame CI arvutamiseks kasutada järgmisi heuristikuid:

#> # A tibble: 7 x 2
#>   CI_percentage nr_of_SEMs
#>           <dbl>      <dbl>
#> 1            50      0.675
#> 2            75      1.15 
#> 3            90      1.64 
#> 4            95      1.96 
#> 5            97      2.17 
#> 6            99      2.58 
#> # … with 1 more row
…
