Reprodutseeritav andmeanalüüs kasutades R keelt
…
Pane tähele, et siin on usaldusintervallide arvutamiseks kasutatud kiiret ad hoc meetodit, mis eeldab muuhulgas, et valimi suurus ei ole väike. Kui n < 30, või kui valimi andmejaotus on väga kaugel normaaljaotusest (jaotus on näiteks väga pika õlaga), soovitame usaldusintervalli arvutamiseks kasutada bayesiaanlikke meetodeid, mida tutvustame hilisemates peatükkides. Igal juhul, kui valimi suurus on piisav ja normaaljaotus pole meie andmetest liiga kaugel, siis saame kasutada järgmisi heuristikuid:

#> # A tibble: 7 x 2
#>   CI_percentage nr_of_SEMs
#>           <dbl>      <dbl>
#> 1          50.0      0.675
#> 2          75.0      1.15 
#> 3          90.0      1.64 
#> 4          95.0      1.96 
#> 5          97.0      2.17 
#> 6          99.0      2.58 
#> # ... with 1 more row
…
