Reprodutseeritav andmeanalüüs kasutades R programmi
…
starts_with(“abc”): matches names that begin with “abc.”

ends_with(“xyz”): matches names that end with “xyz.”

contains(“ijk”): matches names that contain “ijk.”

matches(“(.)\1”): selects variables that match a regular expression. This one matches any variables that contain repeated characters.

num_range(“x”, 1:3) matches x1, x2 and x3.

iris <- as_tibble(iris)
select(iris, starts_with("Petal"))

## # A tibble: 150 x 2
##    Petal.Length Petal.Width
##           <dbl>       <dbl>
##  1          1.4         0.2
##  2          1.4         0.2
##  3          1.3         0.2
##  4          1.5         0.2
##  5          1.4         0.2
##  6          1.7         0.4
##  7          1.4         0.3
##  8          1.5         0.2
##  9          1.4         0.2
## 10          1.5         0.1
## # ... with 140 more rows

select(iris, ends_with("Width"))

## # A tibble: 150 x 2
##    Sepal.Width Petal.Width
##          <dbl>       <dbl>
##  1         3.5         0.2
##  2         3.0         0.2
##  3         3.2         0.2
##  4         3.1         0.2
##  5         3.6         0.2
##  6         3.9         0.4
##  7         3.4         0.3
##  8         3.4         0.2
##  9         2.9         0.2
## 10         3.1         0.1
## # ... with 140 more rows

# Move Species variable to the front
select(iris, Species, everything())

## # A tibble: 150 x 5
##    Species Sepal.Length Sepal.Width Petal.Length Petal.Width
##     <fctr>        <dbl>       <dbl>        <dbl>       <dbl>
##  1  setosa          5.1         3.5          1.4         0.2
##  2  setosa          4.9         3.0          1.4         0.2
##  3  setosa          4.7         3.2          1.3         0.2
##  4  setosa          4.6         3.1          1.5         0.2
##  5  setosa          5.0         3.6          1.4         0.2
##  6  setosa          5.4         3.9          1.7         0.4
##  7  setosa          4.6         3.4          1.4         0.3
##  8  setosa          5.0         3.4          1.5         0.2
##  9  setosa          4.4         2.9          1.4         0.2
## 10  setosa          4.9         3.1          1.5         0.1
## # ... with 140 more rows
…
# Drop variables with -
select(iris, -starts_with("Petal"))

## # A tibble: 150 x 3
##    Sepal.Length Sepal.Width Species
##           <dbl>       <dbl>  <fctr>
##  1          5.1         3.5  setosa
##  2          4.9         3.0  setosa
##  3          4.7         3.2  setosa
##  4          4.6         3.1  setosa
##  5          5.0         3.6  setosa
##  6          5.4         3.9  setosa
##  7          4.6         3.4  setosa
##  8          5.0         3.4  setosa
##  9          4.4         2.9  setosa
## 10          4.9         3.1  setosa
## # ... with 140 more rows

# Renaming -----------------------------------------
# select() keeps only the variables you specify
# rename() keeps all variables
rename(iris, petal_length = Petal.Length)

## # A tibble: 150 x 5
##    Sepal.Length Sepal.Width petal_length Petal.Width Species
##           <dbl>       <dbl>        <dbl>       <dbl>  <fctr>
##  1          5.1         3.5          1.4         0.2  setosa
##  2          4.9         3.0          1.4         0.2  setosa
##  3          4.7         3.2          1.3         0.2  setosa
##  4          4.6         3.1          1.5         0.2  setosa
##  5          5.0         3.6          1.4         0.2  setosa
##  6          5.4         3.9          1.7         0.4  setosa
##  7          4.6         3.4          1.4         0.3  setosa
##  8          5.0         3.4          1.5         0.2  setosa
##  9          4.4         2.9          1.4         0.2  setosa
## 10          4.9         3.1          1.5         0.1  setosa
## # ... with 140 more rows
…
filter(iris, Species=="setosa" & Sepal.Length < 4.5)

## # A tibble: 4 x 5
##   Sepal.Length Sepal.Width Petal.Length Petal.Width Species
##          <dbl>       <dbl>        <dbl>       <dbl>  <fctr>
## 1          4.4         2.9          1.4         0.2  setosa
## 2          4.3         3.0          1.1         0.1  setosa
## 3          4.4         3.0          1.3         0.2  setosa
## 4          4.4         3.2          1.3         0.2  setosa

Keep rows in Iris that have Species level “setosa” or Sepal.Length value <4.5.

filter(iris, Species=="setosa" | Sepal.Length < 4.5)

## # A tibble: 50 x 5
##    Sepal.Length Sepal.Width Petal.Length Petal.Width Species
##           <dbl>       <dbl>        <dbl>       <dbl>  <fctr>
##  1          5.1         3.5          1.4         0.2  setosa
##  2          4.9         3.0          1.4         0.2  setosa
##  3          4.7         3.2          1.3         0.2  setosa
##  4          4.6         3.1          1.5         0.2  setosa
##  5          5.0         3.6          1.4         0.2  setosa
##  6          5.4         3.9          1.7         0.4  setosa
##  7          4.6         3.4          1.4         0.3  setosa
##  8          5.0         3.4          1.5         0.2  setosa
##  9          4.4         2.9          1.4         0.2  setosa
## 10          4.9         3.1          1.5         0.1  setosa
## # ... with 40 more rows

Keep rows in Iris that have Species level “not setosa” or Sepal.Length value <4.5.

filter(iris, Species !="setosa" | Sepal.Length < 4.5)

## # A tibble: 104 x 5
##    Sepal.Length Sepal.Width Petal.Length Petal.Width    Species
##           <dbl>       <dbl>        <dbl>       <dbl>     <fctr>
##  1          4.4         2.9          1.4         0.2     setosa
##  2          4.3         3.0          1.1         0.1     setosa
##  3          4.4         3.0          1.3         0.2     setosa
##  4          4.4         3.2          1.3         0.2     setosa
##  5          7.0         3.2          4.7         1.4 versicolor
##  6          6.4         3.2          4.5         1.5 versicolor
##  7          6.9         3.1          4.9         1.5 versicolor
##  8          5.5         2.3          4.0         1.3 versicolor
##  9          6.5         2.8          4.6         1.5 versicolor
## 10          5.7         2.8          4.5         1.3 versicolor
## # ... with 94 more rows

Kui tahame samast veerust filtreerida “või” ehk “|” abil mitu väärtust, on meil valida kahe samaväärse variandi vahel (tegelikult töötab 2. variant ka ühe väärtuse korral)

filter(iris, Species =="setosa" | Species =="versicolor")
filter(iris, Species %in% c("setosa", "versicolor") )

Nagu näha, 2. variant on oluliselt lühem.

Filtering with regular expression: we keep the rows where subject starts with the letter “T”

library(stringr)
filter(iris, str_detect(Species, "^v")) 

## # A tibble: 100 x 5
##    Sepal.Length Sepal.Width Petal.Length Petal.Width    Species
##           <dbl>       <dbl>        <dbl>       <dbl>     <fctr>
##  1          7.0         3.2          4.7         1.4 versicolor
##  2          6.4         3.2          4.5         1.5 versicolor
##  3          6.9         3.1          4.9         1.5 versicolor
##  4          5.5         2.3          4.0         1.3 versicolor
##  5          6.5         2.8          4.6         1.5 versicolor
##  6          5.7         2.8          4.5         1.3 versicolor
##  7          6.3         3.3          4.7         1.6 versicolor
##  8          4.9         2.4          3.3         1.0 versicolor
##  9          6.6         2.9          4.6         1.3 versicolor
## 10          5.2         2.7          3.9         1.4 versicolor
## # ... with 90 more rows
…
pro tip if you want to summarise and then display the summary values as new column(s), which are added to the original non-shrunk df, use mutate() instead of summarise().

mutate(iris_grouped,
       MEAN = mean(Sepal.Length), 
       SD = sd(Sepal.Length))

## # A tibble: 150 x 7
## # Groups:   Species [3]
##    Sepal.Length Sepal.Width Petal.Length Petal.Width Species  MEAN
##           <dbl>       <dbl>        <dbl>       <dbl>  <fctr> <dbl>
##  1          5.1         3.5          1.4         0.2  setosa 5.006
##  2          4.9         3.0          1.4         0.2  setosa 5.006
##  3          4.7         3.2          1.3         0.2  setosa 5.006
##  4          4.6         3.1          1.5         0.2  setosa 5.006
##  5          5.0         3.6          1.4         0.2  setosa 5.006
##  6          5.4         3.9          1.7         0.4  setosa 5.006
##  7          4.6         3.4          1.4         0.3  setosa 5.006
##  8          5.0         3.4          1.5         0.2  setosa 5.006
##  9          4.4         2.9          1.4         0.2  setosa 5.006
## 10          4.9         3.1          1.5         0.1  setosa 5.006
## # ... with 140 more rows, and 1 more variables: SD <dbl>
…
## [1] Dec Apr Jan Mar
## Levels: Dec Apr Jan Mar

levels() annab faktori tasemed ja nende järjekorra

levels(f2)

## [1] "Dec" "Apr" "Jan" "Mar"

Kui faktorid on tibbles oma veeruna, siis saab nende tasemed count() kasutades

gss_cat #tibble, mille veerg "race" on faktor.

## # A tibble: 21,483 x 9
##     year       marital   age   race        rincome            partyid
##    <int>        <fctr> <int> <fctr>         <fctr>             <fctr>
##  1  2000 Never married    26  White  $8000 to 9999       Ind,near rep
##  2  2000      Divorced    48  White  $8000 to 9999 Not str republican
##  3  2000       Widowed    67  White Not applicable        Independent
##  4  2000 Never married    39  White Not applicable       Ind,near rep
##  5  2000      Divorced    25  White Not applicable   Not str democrat
##  6  2000       Married    25  White $20000 - 24999    Strong democrat
##  7  2000 Never married    36  White $25000 or more Not str republican
##  8  2000      Divorced    44  White  $7000 to 7999       Ind,near dem
##  9  2000       Married    44  White $25000 or more   Not str democrat
## 10  2000       Married    47  White $25000 or more  Strong republican
## # ... with 21,473 more rows, and 3 more variables: relig <fctr>,
## #   denom <fctr>, tvhours <int>
…
