Graafilised lahendused
…
## filter(): dplyr, stats
## lag():    dplyr, stats

library(ggthemes)

R-s on kaks olulisemat graafikasüsteemi (ja veel paar-kolm vähemtähtsat), mida võib vaadata nagu kaht eraldi keelt, mis mõlemad elavad R keele sees. Baasgraafika võimaldab väga lihtsate vahenditega teha kiireid ja suhteliselt ilusaid graafikuid. Seda kasutame sageli enda tarbeks kiirete plottide tegemiseks. Ja ggplot2 raamatukogu on hea avaldamiseks ilupiltide vormisamiseks ja keskmiselt keeruliste visualiseeringute tegemiseks. ggplot2 ja tema sateliit-raamatukogud on järgnevalt meie põhilised huviobjekid, aga alustame siiski baasgraafikast.

1.15. Baasgraafika

Kõigepealt tabel, mida me analüüsima hakkame:

iris <- as_tibble(iris)
iris

## # A tibble: 150 x 5
##    Sepal.Length Sepal.Width Petal.Length Petal.Width Species
##           <dbl>       <dbl>        <dbl>       <dbl>  <fctr>
##  1          5.1         3.5          1.4         0.2  setosa
##  2          4.9         3.0          1.4         0.2  setosa
##  3          4.7         3.2          1.3         0.2  setosa
##  4          4.6         3.1          1.5         0.2  setosa
##  5          5.0         3.6          1.4         0.2  setosa
##  6          5.4         3.9          1.7         0.4  setosa
##  7          4.6         3.4          1.4         0.3  setosa
##  8          5.0         3.4          1.5         0.2  setosa
##  9          4.4         2.9          1.4         0.2  setosa
## 10          4.9         3.1          1.5         0.1  setosa
## # ... with 140 more rows
…
Kaalutud lineaarne mudel on viis anda andmepunktidele, mida me tähtsamaks peame (või mis on täpsemalt mõõdetud) suurem kaal. Kõigepealt, siin on USA demograafilised andmed erinevate kesk-lääne omavalitsuste kohta (437 omavalitsust).

(midwest <- as_tibble(midwest) %>% select(percwhite, percbelowpoverty, poptotal))

## # A tibble: 437 x 3
##    percwhite percbelowpoverty poptotal
##        <dbl>            <dbl>    <int>
##  1  96.71206        13.151443    66090
##  2  66.38434        32.244278    10626
##  3  96.57128        12.068844    14991
##  4  95.25417         7.209019    30806
##  5  90.19877        13.520249     5836
##  6  98.51210        10.399635    35688
##  7  99.54904        15.149781     5322
##  8  98.29813        11.710726    16805
##  9  99.60557        13.875086    13437
## 10  84.67331        15.572437   173025
## # ... with 427 more rows
…
